<?xml version="1.0" encoding="UTF-8" standalone="no"?>
<!-- Created with Inkscape (http://www.inkscape.org/) -->

<svg
   xmlns:dc="http://purl.org/dc/elements/1.1/"
   xmlns:cc="http://creativecommons.org/ns#"
   xmlns:rdf="http://www.w3.org/1999/02/22-rdf-syntax-ns#"
   xmlns:svg="http://www.w3.org/2000/svg"
   xmlns="http://www.w3.org/2000/svg"
   xmlns:sodipodi="http://sodipodi.sourceforge.net/DTD/sodipodi-0.dtd"
   xmlns:inkscape="http://www.inkscape.org/namespaces/inkscape"
   width="60mm"
   height="60mm"
   viewBox="0 0 60 60"
   version="1.1"
   id="svg8"
   inkscape:version="0.92.4 (unknown)"
   sodipodi:docname="Right_Left.svg">
  <defs
     id="defs2" />
  <sodipodi:namedview
     id="base"
     pagecolor="#ffffff"
     bordercolor="#666666"
     borderopacity="1.0"
     inkscape:pageopacity="0.0"
     inkscape:pageshadow="2"
     inkscape:zoom="0.24748737"
     inkscape:cx="27.016659"
     inkscape:cy="-245.35183"
     inkscape:document-units="mm"
     inkscape:current-layer="layer1"
     showgrid="false"
     fit-margin-top="0"
     fit-margin-left="0"
     fit-margin-right="0"
     fit-margin-bottom="0"
     inkscape:window-width="1920"
     inkscape:window-height="1011"
     inkscape:window-x="0"
     inkscape:window-y="0"
     inkscape:window-maximized="1" />
  <metadata
     id="metadata5">
    <rdf:RDF>
      <cc:Work
         rdf:about="">
        <dc:format>image/svg+xml</dc:format>
        <dc:type
           rdf:resource="http://purl.org/dc/dcmitype/StillImage" />
        <dc:title></dc:title>
      </cc:Work>
    </rdf:RDF>
  </metadata>
  <g
     inkscape:label="Layer 1"
     inkscape:groupmode="layer"
     id="layer1"
     transform="translate(-10.747017,-202.81864)">
    <path
       style="fill:#000000;stroke-width:0.07937492"
       d="m 40.747017,202.81864 a 29.999971,29.999972 0 0 0 -30,30 29.999971,29.999972 0 0 0 30,30 29.999971,29.999972 0 0 0 30,-30 29.999971,29.999972 0 0 0 -30,-30 z m 0,3.75 a 26.249952,26.249952 0 0 1 26.25,26.25 26.249952,26.249952 0 0 1 -26.25,26.25 26.249952,26.249952 0 0 1 -26.25,-26.25 26.249952,26.249952 0 0 1 26.25,-26.25 z"
       id="path9327"
       inkscape:connector-curvature="0" />
    <path
       style="opacity:1;fill:#000000;stroke:#000000;stroke-width:1.19999886;stroke-linecap:butt;stroke-linejoin:round;stroke-miterlimit:32;stroke-dasharray:none;stroke-opacity:1"
       d="m 38.782894,214.71025 -7.275208,3.13887 10.031935,15.21115 -5.067591,6.48859 -2.191027,-1.67385 -1.388596,6.52611 -1.388751,6.52595 5.963816,-3.03082 5.963662,-3.03066 -2.191029,-1.67385 8.75031,-11.20427 H 49.07373 l 0.859169,-0.37067 z"
       id="rect4015"
       inkscape:connector-curvature="0" />
  </g>
</svg>
